{
    "invoice": 34843,
    "date": "2001-01-23",
    "bill-to": {
        "given": "Chris",
        "family": "Dumars",
        "address": {
            "lines": "458 Walkman Dr.\nSuite #292\n",
            "city": "Royal Oak",
            "state": "MI",
            "postal": 48046
        }
    },
    "ship-to": {
        "given": "Chris",
        "family": "Dumars",
        "address": {
            "lines": "458 Walkman Dr.\nSuite #292\n",
            "city": "Royal Oak",
            "state": "MI",
            "postal": 48046
        }
    },
    "product": [
        {
            "sku": "BL394D",
            "quantity": 4,
            "description": "Basketball",
            "price": 450.0
        },
        {
            "sku": "BL4438H",
            "quantity": 1,
            "description": "Super Hoop",
            "price": 2392.0
        }
    ],
    "tax": 251.42,
    "total": 4443.52,
    "comments": "Late afternoon is best Backup contact is Nancy Billsmer @ 338-4338"
}